fname,lname,holder,card,cardtype,expired,memberId,gender,email,phone,register,khan,sangkat,city
chhorn,roeun,Chhorn Roeun,12345612,1,2021-10,45646,male,chhornroeun@gmail.com,429122323,boeng kok I,toul kork,Phnom penh,
chhorn,roeun,Chhorn Roeun,12345612,1,2021-10,,male,chhornroeun@gmail.com,4291223,boeng kok I,toul kork,Phnom penh,
chhorn,roeun,Chhorn Roeun,12345612,1,2021-10,,male,chhornroeun@gmail.com,4291234123456,boeng kok I,toul kork,Phnom penh,
chhorn,roeun,Chhorn Roeun121313134,1233443,1,2021-10,,male,chhornroeun@gmail.com,4291245,boeng kok I,toul kork,Phnom penh,